Week 12 Revised
…
## v ggplot2 3.3.5     v dplyr   1.0.7
## v tibble  3.1.6     v stringr 1.4.0
## v tidyr   1.1.4     v forcats 0.5.1
## v purrr   0.3.4

## -- Conflicts ------------------------------------------ tidyverse_conflicts() --
## x dplyr::filter() masks stats::filter()
## x dplyr::lag()    masks stats::lag()

adz <- as_tibble(ads)
ads_clean <- ads %>% select('Daily Time Spent on Site', 'Age','Area Income',
'Daily Internet Usage','City','Male','Country')
ads_clean

## # A tibble: 1,000 x 7
##    `Daily Time Spent ~`   Age `Area Income` `Daily Interne~`  City  Male Country
##                   <dbl> <dbl>         <dbl>            <dbl> <dbl> <dbl>   <dbl>
##  1                 69.0    35        61834.             256.     0     0       0
##  2                 80.2    31        68442.             194.     1     1       1
##  3                 69.5    26        59786.             236.     2     0       2
##  4                 74.2    29        54806.             246.     3     1       3
##  5                 68.4    35        73890.             226.     4     0       4
##  6                 60.0    23        59762.             227.     5     1       5
##  7                 88.9    33        53853.             208.     6     0       6
##  8                 66      48        24593.             132.     7     1       7
##  9                 74.5    30        68862              222.     8     1       8
## 10                 69.9    20        55642.             184.     9     1       9
## # ... with 990 more rows
…
